Importing data
…
Say we wanted to read sheet 2, we could

```r
dinocyst <- read_excel(xl_file, sheet = 2, range = "A3:BT1971")
```

or by name

```r
dinocyst <- read_excel(xl_file, sheet = "duplicate", range = "A3:BT1971")
dinocyst
```

```
## # A tibble: 1,968 × 72
##    Site numb…¹  Aand  Atax  Btep  Bspo  Iacu  Ipal  Ipar  Ipat  Isph  Istr  Ipli
##    <chr>       <dbl> <dbl> <dbl> <dbl> <dbl> <dbl> <dbl> <dbl> <dbl> <dbl> <dbl>
##  1 E003            0 0      0        0     0     0     0     0     0     0     0
##  2 E004            0 0      1.09     0     0     0     0     0     0     0     0
##  3 E005            0 0      0        0     0     0     0     0     0     0     0
##  4 E006            0 0.714  0        0     0     0     0     0     0     0     0
##  5 E007            0 0.488  0        0     0     0     0     0     0     0     0
##  6 E008            0 0      0        0     0     0     0     0     0     0     0
##  7 E010            0 0      0        0     0     0     0     0     0     0     0
##  8 E012            0 0      0        0     0     0     0     0     0     0     0
##  9 E013            0 0      0        0     0     0     0     0     0     0     0
## 10 E014            0 0      0        0     0     0     0     0     0     0     0
## # … with 1,958 more rows, 60 more variables: Ivel <dbl>, Ijap <dbl>,
## #   Lmac <dbl>, Mcho <dbl>, Nlab <dbl>, Nrig <dbl>, Ocen <dbl>, Oisr <dbl>,
## #   Ojan <dbl>, Olon <dbl>, Ogig <dbl>, Pzoh <dbl>, Pret <dbl>, Smem <dbl>,
## #   Sdel <dbl>, Selo <dbl>, Sram <dbl>, Sbel <dbl>, Sben <dbl>, Sbul <dbl>,
## #   Slaz <dbl>, Smir <dbl>, Sgra <dbl>, Spac <dbl>, Sspp <dbl>, Tpel <dbl>,
## #   Pdal <dbl>, Stri <dbl>, Imin <dbl>, Imic <dbl>, Ibre <dbl>, Ekar <dbl>,
## #   Bspp <dbl>, Dubr <dbl>, Peri <dbl>, Lspp <dbl>, Snep <dbl>, Xxan <dbl>, …
```
…
Note this is the complete list &mdash; shorter than types for **readr** and no abbreviations

---

# Reading Excel sheets

```r
col_types <- rep(c('text', 'numeric'), times = c(1, 71))
(dino_xl <- read_excel(xl_file, range = "A3:BT1971", col_types = col_types))
```

```
## # A tibble: 1,968 × 72
##    Site numb…¹  Aand  Atax  Btep  Bspo  Iacu  Ipal  Ipar  Ipat  Isph  Istr  Ipli
##    <chr>       <dbl> <dbl> <dbl> <dbl> <dbl> <dbl> <dbl> <dbl> <dbl> <dbl> <dbl>
##  1 E003            0 0      0        0     0     0     0     0     0     0     0
##  2 E004            0 0      1.09     0     0     0     0     0     0     0     0
##  3 E005            0 0      0        0     0     0     0     0     0     0     0
##  4 E006            0 0.714  0        0     0     0     0     0     0     0     0
##  5 E007            0 0.488  0        0     0     0     0     0     0     0     0
##  6 E008            0 0      0        0     0     0     0     0     0     0     0
##  7 E010            0 0      0        0     0     0     0     0     0     0     0
##  8 E012            0 0      0        0     0     0     0     0     0     0     0
##  9 E013            0 0      0        0     0     0     0     0     0     0     0
## 10 E014            0 0      0        0     0     0     0     0     0     0     0
## # … with 1,958 more rows, 60 more variables: Ivel <dbl>, Ijap <dbl>,
## #   Lmac <dbl>, Mcho <dbl>, Nlab <dbl>, Nrig <dbl>, Ocen <dbl>, Oisr <dbl>,
## #   Ojan <dbl>, Olon <dbl>, Ogig <dbl>, Pzoh <dbl>, Pret <dbl>, Smem <dbl>,
## #   Sdel <dbl>, Selo <dbl>, Sram <dbl>, Sbel <dbl>, Sben <dbl>, Sbul <dbl>,
## #   Slaz <dbl>, Smir <dbl>, Sgra <dbl>, Spac <dbl>, Sspp <dbl>, Tpel <dbl>,
## #   Pdal <dbl>, Stri <dbl>, Imin <dbl>, Imic <dbl>, Ibre <dbl>, Ekar <dbl>,
## #   Bspp <dbl>, Dubr <dbl>, Peri <dbl>, Lspp <dbl>, Snep <dbl>, Xxan <dbl>, …
```
…
# Pangaea &mdash; look at object

```r
ara2b
```

```
## [[1]]
## <Pangaea data> 10.1594/PANGAEA.868790
##   parent doi: 10.1594/PANGAEA.868790
##   url:        https://doi.org/10.1594/PANGAEA.868790
##   citation:   Stein, Ruediger; Fahl, Kirsten; Schade, Inka; Manerung, Adelina; Wassmuth, Saskia; Niessen, Frank; Nam, Seung-Il (2017): (Table 2) Biomarker proxies on sediment core ARA2B-1A. PANGAEA, https://doi.org/10.1594/PANGAEA.868790, In supplement to: Stein, R et al. (2017): Holocene variability in sea ice cover, primary production, and Pacific-Water inflow and climate change in the Chukchi and East Siberian Seas (Arctic Ocean). Journal of Quaternary Science, https://doi.org/10.1002/jqs.2929
##   path:       /home/au690221/.cache/R/pangaear/10_1594_PANGAEA_868790.txt
##   data:
## # A tibble: 110 × 15
##    `Depth [m]` Age [ka…¹ TOC […² Brass…³ Brass…⁴ Dinos…⁵ Dinos…⁶ Campe…⁷ Campe…⁸
##          <dbl>     <dbl>   <dbl>   <dbl>   <dbl>   <dbl>   <dbl>   <dbl>   <dbl>
##  1        0        0        1.57   0.904    57.5   0.284   18.0    1.26     80.0
##  2        0.05     0.164    1.44   0.711    49.4   0.402   27.9    0.865    60.1
##  3        0.1      0.329    1.45   0.369    25.4   0.188   13.0    0.338    23.3
##  4        0.15     0.493    1.33   0.359    27.0   0.179   13.5    0.341    25.7
##  5        0.2      0.658    1.25   0.404    32.2   0.178   14.2    0.378    30.2
##  6        0.25     0.822    1.24   0.632    50.9   0.338   27.2    0.543    43.7
##  7        0.3      0.987    1.24   0.596    48.0   0.274   22.0    0.606    48.7
##  8        0.35     1.15     1.21   0.515    42.6   0.277   22.9    0.5      41.4
##  9        0.4      1.32     1.41   0.361    25.6   0.13     9.27   0.259    18.4
## 10        0.45     1.48     1.24   0.298    24.0   0.103    8.31   0.244    19.7
## # … with 100 more rows, 6 more variables: `β-Sitosterol/sed [µg/g]` <dbl>,
## #   `β-Sitosterol/TOC [µg/g]` <dbl>, `IP25/sed [µg/g]` <dbl>,
## #   `IP25/TOC [µg/g]` <dbl>, PBIP25 <dbl>, PDIP25 <dbl>, and abbreviated
## #   variable names ¹​`Age [ka BP]`, ²​`TOC [%]`, ³​`Brassicasterol/sed [µg/g]`,
## #   ⁴​`Brassicasterol/TOC [µg/g]`, ⁵​`Dinosterol/sed [µg/g]`,
## #   ⁶​`Dinosterol/TOC [µg/g]`, ⁷​`Campesterol/sed [µg/g]`,
## #   ⁸​`Campesterol/TOC [µg/g]`
```

---

# Pangaea &mdash; extract data

```r
ara2b_df <- ara2b[[1]]$data
ara2b_df
```

```
## # A tibble: 110 × 15
##    `Depth [m]` Age [ka…¹ TOC […² Brass…³ Brass…⁴ Dinos…⁵ Dinos…⁶ Campe…⁷ Campe…⁸
##          <dbl>     <dbl>   <dbl>   <dbl>   <dbl>   <dbl>   <dbl>   <dbl>   <dbl>
##  1        0        0        1.57   0.904    57.5   0.284   18.0    1.26     80.0
##  2        0.05     0.164    1.44   0.711    49.4   0.402   27.9    0.865    60.1
##  3        0.1      0.329    1.45   0.369    25.4   0.188   13.0    0.338    23.3
##  4        0.15     0.493    1.33   0.359    27.0   0.179   13.5    0.341    25.7
##  5        0.2      0.658    1.25   0.404    32.2   0.178   14.2    0.378    30.2
##  6        0.25     0.822    1.24   0.632    50.9   0.338   27.2    0.543    43.7
##  7        0.3      0.987    1.24   0.596    48.0   0.274   22.0    0.606    48.7
##  8        0.35     1.15     1.21   0.515    42.6   0.277   22.9    0.5      41.4
##  9        0.4      1.32     1.41   0.361    25.6   0.13     9.27   0.259    18.4
## 10        0.45     1.48     1.24   0.298    24.0   0.103    8.31   0.244    19.7
## # … with 100 more rows, 6 more variables: `β-Sitosterol/sed [µg/g]` <dbl>,
## #   `β-Sitosterol/TOC [µg/g]` <dbl>, `IP25/sed [µg/g]` <dbl>,
## #   `IP25/TOC [µg/g]` <dbl>, PBIP25 <dbl>, PDIP25 <dbl>, and abbreviated
## #   variable names ¹​`Age [ka BP]`, ²​`TOC [%]`, ³​`Brassicasterol/sed [µg/g]`,
## #   ⁴​`Brassicasterol/TOC [µg/g]`, ⁵​`Dinosterol/sed [µg/g]`,
## #   ⁶​`Dinosterol/TOC [µg/g]`, ⁷​`Campesterol/sed [µg/g]`,
## #   ⁸​`Campesterol/TOC [µg/g]`
```
