Data wrangling with dplyr 📦
…
---

# Global burden of dinocyst

```r
dino <- read_excel(here("data", "dinocyst-meta.xlsx"), skip = 2,
    na = c("", "---", "-----"))
```

```r
dino
```

```
## # A tibble: 1,968 × 12
##    `Site number` Latit…¹ Longi…² Lab I…³ Cruis…⁴ corin…⁵ Depth…⁶ Dinoc…⁷ Dinoc…⁸
##    <chr>           <dbl>   <dbl> <chr>   <chr>   <chr>   <chr>     <dbl> <chr>  
##  1 E003             48.2   -69.5 UQP-30… Pétrel… Box co… surface     179 527    
##  2 E004             48.2   -69.6 UQP-29… Pétrel… Box co… surface      92 299    
##  3 E005             48.2   -69.3 UQP-30… Pétrel… Box co… surface     162 229    
##  4 E006             48.3   -69.4 UQP-30… Pétrel… Box co… surface     140 470    
##  5 E007             48.3   -69.4 UQP-30… Pétrel… Box co… surface     205 570    
##  6 E008             48.3   -69.3 UQP-19… Lauzie… Gravit… surface     173 1845   
##  7 E010             48.5   -69.0 UQP-29… Lauzie… Box co… surface      94 224    
##  8 E012             48.6   -68.5 UQP-30… Pétrel… Box co… surface     171 425    
##  9 E013             48.8   -68.6 UQP-30… Pétrel… Box co… surface     303 1692   
## 10 E014             48.9   -68.7 UQP-29… Pétrel… Box co… surface     284 1440   
## # … with 1,958 more rows, 3 more variables: `Dinocyst conc./g` <chr>,
## #   Analyst <chr>, Reference <chr>, and abbreviated variable names ¹​Latitude,
## #   ²​Longitude, ³​`Lab ID`, ⁴​`Cruise and Core number`, ⁵​`coring device`,
## #   ⁶​`Depth (cm)`, ⁷​`Dinocyst count`, ⁸​`Dinocyst conc./cm3`
```
…
---

# `filter()`

Subset observations based on the values or one or more of the columns

```r
filter(dino, coring_device == "Box corer")
```

```
## # A tibble: 341 × 12
##    site_number latitude longitude lab_id cruis…¹ corin…² depth…³ dinoc…⁴ dinoc…⁵
##    <chr>          <dbl>     <dbl> <chr>  <chr>   <chr>   <chr>     <dbl> <chr>  
##  1 E003            48.2     -69.5 UQP-3… Pétrel… Box co… surface     179 527    
##  2 E004            48.2     -69.6 UQP-2… Pétrel… Box co… surface      92 299    
##  3 E005            48.2     -69.3 UQP-3… Pétrel… Box co… surface     162 229    
##  4 E006            48.3     -69.4 UQP-3… Pétrel… Box co… surface     140 470    
##  5 E007            48.3     -69.4 UQP-3… Pétrel… Box co… surface     205 570    
##  6 E010            48.5     -69.0 UQP-2… Lauzie… Box co… surface      94 224    
##  7 E012            48.6     -68.5 UQP-3… Pétrel… Box co… surface     171 425    
##  8 E013            48.8     -68.6 UQP-3… Pétrel… Box co… surface     303 1692   
##  9 E014            48.9     -68.7 UQP-2… Pétrel… Box co… surface     284 1440   
## 10 E015            48.7     -68.1 UQP-3… Pétrel… Box co… surface     253 668    
## # … with 331 more rows, 3 more variables: dinocyst_conc_g <chr>, analyst <chr>,
## #   reference <chr>, and abbreviated variable names ¹​cruise_and_core_number,
## #   ²​coring_device, ³​depth_cm, ⁴​dinocyst_count, ⁵​dinocyst_conc_cm3
```
…
The pipe operator `%>%` allows use to compose *dplyr* verbs into a workflow to achieve a data wrangling outcome

---

# Plot

```r
dino_box <- dino %>%
    filter(coring_device == "Box corer")
dino_box
```

```
## # A tibble: 341 × 12
##    site_number latitude longitude lab_id cruis…¹ corin…² depth…³ dinoc…⁴ dinoc…⁵
##    <chr>          <dbl>     <dbl> <chr>  <chr>   <chr>   <chr>     <dbl> <chr>  
##  1 E003            48.2     -69.5 UQP-3… Pétrel… Box co… surface     179 527    
##  2 E004            48.2     -69.6 UQP-2… Pétrel… Box co… surface      92 299    
##  3 E005            48.2     -69.3 UQP-3… Pétrel… Box co… surface     162 229    
##  4 E006            48.3     -69.4 UQP-3… Pétrel… Box co… surface     140 470    
##  5 E007            48.3     -69.4 UQP-3… Pétrel… Box co… surface     205 570    
##  6 E010            48.5     -69.0 UQP-2… Lauzie… Box co… surface      94 224    
##  7 E012            48.6     -68.5 UQP-3… Pétrel… Box co… surface     171 425    
##  8 E013            48.8     -68.6 UQP-3… Pétrel… Box co… surface     303 1692   
##  9 E014            48.9     -68.7 UQP-2… Pétrel… Box co… surface     284 1440   
## 10 E015            48.7     -68.1 UQP-3… Pétrel… Box co… surface     253 668    
## # … with 331 more rows, 3 more variables: dinocyst_conc_g <chr>, analyst <chr>,
## #   reference <chr>, and abbreviated variable names ¹​cruise_and_core_number,
## #   ²​coring_device, ³​depth_cm, ⁴​dinocyst_count, ⁵​dinocyst_conc_cm3
```
…
---

# `arrange()`

Sort the rows according to a condition or variable

```r
arrange(dino, dinocyst_count)
```

```
## # A tibble: 1,968 × 12
##    site_number latitude longitude lab_id cruis…¹ corin…² depth…³ dinoc…⁴ dinoc…⁵
##    <chr>          <dbl>     <dbl> <chr>  <chr>   <chr>   <chr>     <dbl> <chr>  
##  1 2189            68.9    -59.3  3463-2 GeoB 2… Box co… Surface      27 <NA>   
##  2 B2132           70.3    -66.1  503366 Statio… Box co… surface      30 <NA>   
##  3 L2128           59.0    -63.9  501481 Statio… Box co… surface      31 <NA>   
##  4 Z2134           74.1    -83.4  503427 Statio… Box co… surface      49 <NA>   
##  5 Y2055           80.5     -8.49 3298-3 PS93-0… <NA>    surface      59 2200   
##  6 M1087           38.2     13.1  282/1  KET82-… <NA>    surface      60 453.59…
##  7 X1749           19.0    -94.7  2885-1 GDM-11… <NA>    surface      60 <NA>   
##  8 Z726            77.1    -89.5  ISMER  JOS 17… <NA>    surface      61 672    
##  9 M1062           40.1      1.35 273/8  SU81-01 <NA>    surface      61 272.16…
## 10 P1268           32.8   -118.   2100-2 48      <NA>    surface      64 <NA>   
## # … with 1,958 more rows, 3 more variables: dinocyst_conc_g <chr>,
## #   analyst <chr>, reference <chr>, and abbreviated variable names
## #   ¹​cruise_and_core_number, ²​coring_device, ³​depth_cm, ⁴​dinocyst_count,
## #   ⁵​dinocyst_conc_cm3
```

---

# `desc()`

Arrange in descending order using `desc()`

```r
arrange(dino, desc(dinocyst_count))
```

```
## # A tibble: 1,968 × 12
##    site_number latitude longitude lab_id cruis…¹ corin…² depth…³ dinoc…⁴ dinoc…⁵
##    <chr>          <dbl>     <dbl> <chr>  <chr>   <chr>   <chr>     <dbl> <chr>  
##  1 N230            65.2     -9.53 UQP-7… 16184   Box co… surface    4012 175.81…
##  2 J353            67.9    -18.4  Kiel   PO-158… Box co… surface    2906 <NA>   
##  3 J360            68.2    -18.3  Kiel   PO-158… Box co… surface    2541 <NA>   
##  4 J312            72.0      4.99 Kiel   23267   Box co… surface    2233 <NA>   
##  5 J307            72.1     11.4  Kiel   23260   Box co… surface    2096 <NA>   
##  6 A939            66.7    -16.8  <NA>   2674    <NA>    surface    2081 12425.…
##  7 Z1390           72.0     22.0  900/1… HM St 1 <NA>    surface    1950 <NA>   
##  8 J305            75       14.0  Kiel   23258   Box co… surface    1824 <NA>   
##  9 J311            72.0      7.49 Kiel   23266   Box co… surface    1732 <NA>   
## 10 J310            71.2     15.8  Kiel   23264   Box co… surface    1682 <NA>   
## # … with 1,958 more rows, 3 more variables: dinocyst_conc_g <chr>,
## #   analyst <chr>, reference <chr>, and abbreviated variable names
## #   ¹​cruise_and_core_number, ²​coring_device, ³​depth_cm, ⁴​dinocyst_count,
## #   ⁵​dinocyst_conc_cm3
```

---

# `select()`

Choose which variables to view or work with

```r
select(dino, c(latitude, longitude, dinocyst_count))
```

```
## # A tibble: 1,968 × 3
##    latitude longitude dinocyst_count
##       <dbl>     <dbl>          <dbl>
##  1     48.2     -69.5            179
##  2     48.2     -69.6             92
##  3     48.2     -69.3            162
##  4     48.3     -69.4            140
##  5     48.3     -69.4            205
##  6     48.3     -69.3            173
##  7     48.5     -69.0             94
##  8     48.6     -68.5            171
##  9     48.8     -68.6            303
## 10     48.9     -68.7            284
## # … with 1,958 more rows
```
…
# `select()` &mdash; many options for selecting

.row[

.col-6[

`matches()`

```r
select(dino, matches("dinocyst"))
```

```
## # A tibble: 1,968 × 3
##    dinocyst_count dinocyst_conc_cm3 dinocyst_conc_g
##             <dbl> <chr>             <chr>          
##  1            179 527               <NA>           
##  2             92 299               <NA>           
##  3            162 229               <NA>           
##  4            140 470               <NA>           
##  5            205 570               <NA>           
##  6            173 1845              <NA>           
##  7             94 224               <NA>           
##  8            171 425               <NA>           
##  9            303 1692              <NA>           
## 10            284 1440              <NA>           
## # … with 1,958 more rows
```
]

.col-6[

`last_col()`

```r
select(dino, last_col())
```

```
## # A tibble: 1,968 × 1
##    reference          
##    <chr>              
##  1 Rochon et al., 1999
##  2 Rochon et al., 1999
##  3 Rochon et al., 1999
##  4 Rochon et al., 1999
##  5 Rochon et al., 1999
##  6 Rochon et al., 1999
##  7 Rochon et al., 1999
##  8 Rochon et al., 1999
##  9 Rochon et al., 1999
## 10 Rochon et al., 1999
## # … with 1,958 more rows
```
…
# `select()` &mdash; many options for selecting

.row[

.col-6[

`from:to`

```r
select(dino, latitude:coring_device)
```

```
## # A tibble: 1,968 × 5
##    latitude longitude lab_id    cruise_and_core_number coring_device
##       <dbl>     <dbl> <chr>     <chr>                  <chr>        
##  1     48.2     -69.5 UQP-300-2 Pétrel-88/E2           Box corer    
##  2     48.2     -69.6 UQP-294-6 Pétrel-88/E3           Box corer    
##  3     48.2     -69.3 UQP-300-4 Pétrel-88/F1           Box corer    
##  4     48.3     -69.4 UQP-300-5 Pétrel-88/F2           Box corer    
##  5     48.3     -69.4 UQP-300-6 Pétrel-88/F3           Box corer    
##  6     48.3     -69.3 UQP-196-1 Lauzier-85/11          Gravity corer
##  7     48.5     -69.0 UQP-295-3 Lauzier-85/G2          Box corer    
##  8     48.6     -68.5 UQP-301-3 Pétrel-88/H1           Box corer    
##  9     48.8     -68.6 UQP-301-4 Pétrel-88/H2           Box corer    
## 10     48.9     -68.7 UQP-295-5 Pétrel-88/H3           Box corer    
## # … with 1,958 more rows
```
]

.col-6[

`starts_with()`

```r
select(dino, starts_with("l"))
```

```
## # A tibble: 1,968 × 3
##    latitude longitude lab_id   
##       <dbl>     <dbl> <chr>    
##  1     48.2     -69.5 UQP-300-2
##  2     48.2     -69.6 UQP-294-6
##  3     48.2     -69.3 UQP-300-4
##  4     48.3     -69.4 UQP-300-5
##  5     48.3     -69.4 UQP-300-6
##  6     48.3     -69.3 UQP-196-1
##  7     48.5     -69.0 UQP-295-3
##  8     48.6     -68.5 UQP-301-3
##  9     48.8     -68.6 UQP-301-4
## 10     48.9     -68.7 UQP-295-5
## # … with 1,958 more rows
```
…
---

# `group_by()`

`summarise()` becomes much more useful if we group data first

```r
dino %>%
    group_by(coring_device) %>%
    summarise(total_cysts = sum(dinocyst_count, na.rm = TRUE))
```

```
## # A tibble: 22 × 2
##    coring_device   total_cysts
##    <chr>                 <dbl>
##  1 box corer             28298
##  2 Box corer            159671
##  3 box-core                  0
##  4 Box-corer              1234
##  5 boxe corer                0
##  6 Ekman grab             3966
##  7 GOMEX box corer       13140
##  8 grab                   6843
##  9 Grab                  27429
## 10 Gravity core            101
## # … with 12 more rows
```
…
# `mutate()`

Create new variable or modify existing ones

```r
dino %>%
    group_by(coring_device) %>%
    summarise(count_per_device = sum(dinocyst_count, na.rm = TRUE)) %>%
*   mutate(total_count = sum(count_per_device)) %>%
    ungroup()
```

```
## # A tibble: 22 × 3
##    coring_device   count_per_device total_count
##    <chr>                      <dbl>       <dbl>
##  1 box corer                  28298      620822
##  2 Box corer                 159671      620822
##  3 box-core                       0      620822
##  4 Box-corer                   1234      620822
##  5 boxe corer                     0      620822
##  6 Ekman grab                  3966      620822
##  7 GOMEX box corer            13140      620822
##  8 grab                        6843      620822
##  9 Grab                       27429      620822
## 10 Gravity core                 101      620822
## # … with 12 more rows
```
…
> Tidy datasets provide a standardized way to link the structure of a dataset (its physical layout) with its semantics (its meaning). &ndash; **Hadley Wickham**

A way to arrange data that facilitates subsequent exploration, transformation, visualization, & modelling of the data where

* each column is a variable
* each row is observation

---

# Wide or long?

Often store species data in wide format

```
## # A tibble: 1,968 × 72
##    site   Aand  Atax  Btep  Bspo  Iacu  Ipal  Ipar  Ipat  Isph  Istr  Ipli  Ivel
##    <chr> <dbl> <dbl> <dbl> <dbl> <dbl> <dbl> <dbl> <dbl> <dbl> <dbl> <dbl> <dbl>
##  1 E003      0 0      0        0     0     0     0     0     0     0     0     0
##  2 E004      0 0      1.09     0     0     0     0     0     0     0     0     0
##  3 E005      0 0      0        0     0     0     0     0     0     0     0     0
##  4 E006      0 0.714  0        0     0     0     0     0     0     0     0     0
##  5 E007      0 0.488  0        0     0     0     0     0     0     0     0     0
##  6 E008      0 0      0        0     0     0     0     0     0     0     0     0
##  7 E010      0 0      0        0     0     0     0     0     0     0     0     0
##  8 E012      0 0      0        0     0     0     0     0     0     0     0     0
##  9 E013      0 0      0        0     0     0     0     0     0     0     0     0
## 10 E014      0 0      0        0     0     0     0     0     0     0     0     0
## # … with 1,958 more rows, and 59 more variables: Ijap <dbl>, Lmac <dbl>,
## #   Mcho <dbl>, Nlab <dbl>, Nrig <dbl>, Ocen <dbl>, Oisr <dbl>, Ojan <dbl>,
## #   Olon <dbl>, Ogig <dbl>, Pzoh <dbl>, Pret <dbl>, Smem <dbl>, Sdel <dbl>,
## #   Selo <dbl>, Sram <dbl>, Sbel <dbl>, Sben <dbl>, Sbul <dbl>, Slaz <dbl>,
## #   Smir <dbl>, Sgra <dbl>, Spac <dbl>, Sspp <dbl>, Tpel <dbl>, Pdal <dbl>,
## #   Stri <dbl>, Imin <dbl>, Imic <dbl>, Ibre <dbl>, Ekar <dbl>, Bspp <dbl>,
## #   Dubr <dbl>, Peri <dbl>, Lspp <dbl>, Snep <dbl>, Xxan <dbl>, Squa <dbl>, …
```

---

Look at an alternative way of storing the rectangular data

```
## # A tibble: 139,728 × 3
##    site  taxon count
##    <chr> <chr> <dbl>
##  1 E003  Aand      0
##  2 E003  Atax      0
##  3 E003  Btep      0
##  4 E003  Bspo      0
##  5 E003  Iacu      0
##  6 E003  Ipal      0
##  7 E003  Ipar      0
##  8 E003  Ipat      0
##  9 E003  Isph      0
## 10 E003  Istr      0
## # … with 139,718 more rows
```
…
---

# `pivot_longer()`

To go from the wide version of `dino_wide` to the long form we use `pivot_longer()`

```r
dino_wide %>%
    pivot_longer(cols = Aand:Dcha, # which columns to pivot
        names_to = "taxon",        # variables to create in long form
        values_to = "count")       # column to put the data into
```

```
## # A tibble: 139,728 × 3
##    site  taxon count
##    <chr> <chr> <dbl>
##  1 E003  Aand      0
##  2 E003  Atax      0
##  3 E003  Btep      0
##  4 E003  Bspo      0
##  5 E003  Iacu      0
##  6 E003  Ipal      0
##  7 E003  Ipar      0
##  8 E003  Ipat      0
##  9 E003  Isph      0
## 10 E003  Istr      0
## # … with 139,718 more rows
```
…
